"강좌코드","강좌명","기관코드","기관명","난이도코드","난이도명","수강신청 접수시작일","수강신청 접수종료일","수강신청 접수시작시간","수강신청 접수마감시간","교육시작일","교육종료일","교육시작시간","교육종료시간","교육요일(월)","교육요일(화)","교육요일(수)","교육요일(목)","교육요일(금)","교육요일(토)","교육요일(일)","모집정원","예비자모집인원","수강료(원)","접수방법(방문접수여부Y,N)","접수방법(온라인접수여부Y,N)","상세정보 주소"
"C100112279","[내일배움]무역실무자(국제무역사2급)양성과정","22","용산여성인력개발센터","N","관계없음","20200201","20200707","15:45","18:00","20200709","20200928","19:00","22:00","Y","Y","Y","Y","Y","Y","","20","0","568170","Y","Y","https://yongsan.seoulwomanup.or.kr/yongsan/edu/selectEduProgram.do?sch_class_code=C100112279"
"C100112260","8월 나도 유튜브 스타","22","용산여성인력개발센터","N","관계없음","20200101","20200813","09:00","18:00","20200806","20200827","13:00","17:00","Y","Y","Y","Y","Y","Y","","20","5","60000","Y","Y","https://yongsan.seoulwomanup.or.kr/yongsan/edu/selectEduProgram.do?sch_class_code=C100112260"
"C100112257","단체급식조리원 양성과정","22","용산여성인력개발센터","J","초급","20200609","20200701","09:00","18:00","20200706","20200922","14:00","18:00","Y","Y","Y","Y","Y","Y","","30","15","0","Y","Y","https://yongsan.seoulwomanup.or.kr/yongsan/edu/selectEduProgram.do?sch_class_code=C100112257"
"C100112248","7월 콜센터 상담원 교육with농협파트너스","22","용산여성인력개발센터","N","관계없음","20191203","20200715","09:00","18:00","20200715","20200715","14:00","17:00","Y","Y","Y","Y","Y","Y","","20","0","10000","Y","Y","https://yongsan.seoulwomanup.or.kr/yongsan/edu/selectEduProgram.do?sch_class_code=C100112248"
"C100112195","[신규]바리스타 1급 자격증 취득","22","용산여성인력개발센터","C","자격","20200512","20200714","09:00","18:00","20200715","20200824","10:00","13:00","Y","Y","Y","Y","Y","Y","","5","0","240000","Y","Y","https://yongsan.seoulwomanup.or.kr/yongsan/edu/selectEduProgram.do?sch_class_code=C100112195"
"C100112185","[내일배움]직장인을 위한 파워포인트 실무","22","용산여성인력개발센터","S","고급","20200120","20200702","09:00","18:00","20200701","20200727","19:00","22:00","Y","Y","Y","Y","Y","Y","","20","10","143880","Y","Y","https://yongsan.seoulwomanup.or.kr/yongsan/edu/selectEduProgram.do?sch_class_code=C100112185"
"C100112184","[내일배움]엑셀실무활용","22","용산여성인력개발센터","N","관계없음","20200123","20200821","09:00","18:00","20200822","20200912","09:30","16:30","Y","Y","Y","Y","Y","Y","","20","10","143880","Y","Y","https://yongsan.seoulwomanup.or.kr/yongsan/edu/selectEduProgram.do?sch_class_code=C100112184"
"C100112183","[내일배움]엑셀실무활용","22","용산여성인력개발센터","N","관계없음","20200122","20200810","09:00","18:00","20200811","20200903","19:00","22:00","Y","Y","Y","Y","Y","Y","","20","10","143880","Y","Y","https://yongsan.seoulwomanup.or.kr/yongsan/edu/selectEduProgram.do?sch_class_code=C100112183"
"C100112178","[내일배움] 포토샵을 활용한 디자인 기초(GTQ)","22","용산여성인력개발센터","A","초중급","20200413","20200810","09:00","18:00","20200810","20200928","19:00","22:00","Y","Y","Y","Y","Y","Y","","20","0","252850","Y","Y","https://yongsan.seoulwomanup.or.kr/yongsan/edu/selectEduProgram.do?sch_class_code=C100112178"
"C100112175","7월 베이비시터","22","용산여성인력개발센터","N","관계없음","20191105","20200615","13:00","18:00","20200720","20200724","13:30","17:30","Y","Y","Y","Y","Y","Y","","20","10","60000","Y","Y","https://yongsan.seoulwomanup.or.kr/yongsan/edu/selectEduProgram.do?sch_class_code=C100112175"
"C100112163","[신규]실버인지교육지도사(치매예방)","22","용산여성인력개발센터","C","자격","20200217","20200612","09:00","18:00","20200703","20200821","14:00","17:00","Y","Y","Y","Y","Y","Y","","20","5","120000","Y","Y","https://yongsan.seoulwomanup.or.kr/yongsan/edu/selectEduProgram.do?sch_class_code=C100112163"
"C100112142","디저트카페창업 및 매니저 양성과정","22","용산여성인력개발센터","J","초급","20200603","20200624","09:00","18:00","20200629","20200904","09:30","13:30","Y","Y","Y","Y","Y","Y","","50","0","0","Y","Y","https://yongsan.seoulwomanup.or.kr/yongsan/edu/selectEduProgram.do?sch_class_code=C100112142"
"C100112141","실버헬스케어양성과정","22","용산여성인력개발센터","N","관계없음","20200603","20200612","09:00","18:00","20200615","20200814","14:00","18:00","Y","Y","Y","Y","Y","Y","","50","25","0","Y","Y","https://yongsan.seoulwomanup.or.kr/yongsan/edu/selectEduProgram.do?sch_class_code=C100112141"