"강좌코드","강좌명","기관코드","기관명","난이도코드","난이도명","수강신청 접수시작일","수강신청 접수종료일","수강신청 접수시작시간","수강신청 접수마감시간","교육시작일","교육종료일","교육시작시간","교육종료시간","교육요일(월)","교육요일(화)","교육요일(수)","교육요일(목)","교육요일(금)","교육요일(토)","교육요일(일)","모집정원","예비자모집인원","수강료(원)","접수방법(방문접수여부Y,N)","접수방법(온라인접수여부Y,N)","상세정보 주소"
"C100112292","[20-5 유료]라탄공예 입문과정","19","송파여성인력개발센터","J","초급","20200611","20200717","09:00","09:00","20200717","20200814","10:00","12:00","Y","Y","Y","Y","Y","Y","","10","5","80000","Y","Y","https://songpa.seoulwomanup.or.kr/songpa/edu/selectEduProgram.do?sch_class_code=C100112292"
"C100112291","[20-6 유료]부동산경매입문과 세금(야간)","19","송파여성인력개발센터","N","관계없음","20200611","20200713","09:00","09:00","20200713","20200817","19:00","21:00","Y","Y","Y","Y","Y","Y","","25","0","100000","Y","Y","https://songpa.seoulwomanup.or.kr/songpa/edu/selectEduProgram.do?sch_class_code=C100112291"
"C100112290","[20-6 유료]부동산경매입문과 세금(주간)","19","송파여성인력개발센터","N","관계없음","20200611","20200713","09:00","09:00","20200713","20200817","14:30","16:30","Y","Y","Y","Y","Y","Y","","25","0","100000","Y","Y","https://songpa.seoulwomanup.or.kr/songpa/edu/selectEduProgram.do?sch_class_code=C100112290"
"C100112243","[20-5유료]수납정리관리사(금요)","19","송파여성인력개발센터","N","관계없음","20200609","20200703","09:00","24:00","20200703","20200731","09:30","12:30","Y","Y","Y","Y","Y","Y","","20","5","80000","Y","Y","https://songpa.seoulwomanup.or.kr/songpa/edu/selectEduProgram.do?sch_class_code=C100112243"
"C100112289","[20-5유료]라탄공예 중급과정(야간)","19","송파여성인력개발센터","M","중급","20200611","20200701","09:00","09:00","20200701","20200729","19:00","21:00","Y","Y","Y","Y","Y","Y","","8","5","80000","Y","Y","https://songpa.seoulwomanup.or.kr/songpa/edu/selectEduProgram.do?sch_class_code=C100112289"