"새주소","지번주소","좌표정보","좌표정보","테마코드","콘텐츠 코드","언어셋(KOR : 국문, ENG : 영문, JP : 일문, CHA : 중문-간체, CHB : 중문-번체)","콘텐츠 명","시도명(텍스트)","구명","동명","산지여부","주 번지","부 번지","기타주소","전화번호","상세정보 값 1","상세정보 값 2","상세정보 값 3","상세정보 값 4","상세정보 값 5","상세정보 값 6","상세정보 값 7","상세정보 값 8","상세정보 값 9","상세정보 값 10","상세정보 값 11","상세정보 값 12","상세정보 값 13","상세정보 값 14","상세정보 값 15","상세정보 값 16","상세정보 값 17","상세정보 값 18","상세정보 값 19","상세정보 값 20","상세정보 이름 1","상세정보 이름 2","상세정보 이름 3","상세정보 이름 4","상세정보 이름 5","상세정보 이름 6","상세정보 이름 7","상세정보 이름 8","상세정보 이름 9","상세정보 이름 10","상세정보 이름 11","상세정보 이름 12","상세정보 이름 13","상세정보 이름 14","상세정보 이름 15","상세정보 이름 16","상세정보 이름 17","상세정보 이름 18","상세정보 이름 19","상세정보 이름 20","좌표데이터","좌표 타입 (1:Point 3:Polyline 4:MultiPolyline 5:Polygon 6:MultiPolygon 8:multiPoint)","선 두께 1~10","테마 선 색상","키워드","등록일","수정일"
"왕십리로17길 15-24","성동구 하왕십리동 976-12","127.030814900","37.560393500","100162","memory0011","KOR","[왕십리]우물 있던 집","","성동구","하왕십리동","","976-12","","","02-3209-7123","이건아","이건아씨는 1958년 서울 왕십리에서 태어나 이문동에서 학창시절을 보냈다. 무학초중고등학교를 거쳐 건국대학교를 나왔다. 결혼후에는 성북구 월곡동에서 오래 거주하였다.","어린 시절 살던 왕십리 우리 집에는 시골에서도 보기 드문 깊은 우물이 있었다. 여름이면 그곳에 수박을 담가 시원하게 먹었다. 옆집은 세를 준 집이였는데 나전칠기를 하는 어른들이 살았다. 가끔 거지들이 깡통을 들고 찾아오면 음식을 줘서 보내기도 했다. 지금은 돌아갈 수 없는 아련한 추억으로만 남아있는 우리 집 우리 동네에 관한 이야기.","성동구 왕십리동","1650년대","http://m.memoryinseoul.sfac.or.kr/invite.do","","","","","","","","","","","","","","","기억제공자","기억제공자 소개","메모리","기억 속 장소","기억 속 시간","메모리인서울 참여하기","","","","","","","","","","","","","","","795561076","5","1","#FF7F00","","2016-08-30 09:33:11.0","2016-08-30 09:33:11.0"
"명동길 38","중구 명동","126.984385800","37.563850300","100162","memory0012","KOR","[명동]'신의 손' 막쟁이 아저씨","","중구","명동","","","","","02-3209-7123","김도훈","김도훈씨는 73세로 연극계의 거장 중 한명으로 원로 연극인 연출가이며 현재 극단 뿌리의 대표다.","70년대 명동국립극단에는 ‘자만아저씨’라고 불리는 무대 막 전문가가 있었다. 지금은 기계로 하지만 당시에는 사람이 손수 무대 막을 올리고 내렸는데 그 분의 손 맛은 기가 막힐 정도! 무대 막에도 감정이 실릴 수 있다는 것을 보여준 ‘신의 손’ 자만아저씨의 이야기를 들어본다.","중구 명동극장","1970년대","http://m.memoryinseoul.sfac.or.kr/invite.do","","","","","","","","","","","","","","","기억제공자","기억제공자 소개","메모리","기억 속 장소","기억 속 시간","메모리인서울 참여하기","","","","","","","","","","","","","","","","1","1","#FF7F00","","2016-08-30 09:33:11.0","2016-08-30 09:33:11.0"
"한강대로 390","용산구 동자동 14-140","126.972667000","37.553016600","100162","memory0013","KOR","[서울역]서울역의 쓰리꾼","","용산구","동자동","","14-140","","","02-3209-7123","김병숙","김병숙씨는 1958년생으로 충청도에서 태어났고 22살때 직장문제로 서울 흑석동으로 상경하였고 출판사일을 하시고 현재는 노원구에서 거주하고 있다.","서울역에 처음 도착했을 때의 기억으로 엄청나게 복잡했던 서울역엔 지게 진 사람들이 왔다갔다하고 여러사람들이 모여 정신이 없던 것이 참 인상 깊었다. 가장 기억남는 사건은 옛날엔 쓰리꾼(소매치기)이 있어서 당한 아가씨들이 울고 소리치고 하던 기억이…","용산구 동자동 서울역","1980년대","http://m.memoryinseoul.sfac.or.kr/invite.do","","","","","","","","","","","","","","","기억제공자","기억제공자 소개","메모리","기억 속 장소","기억 속 시간","메모리인서울 참여하기","","","","","","","","","","","","","","","","1","1","#FF7F00","","2016-08-30 09:33:11.0","2016-08-30 09:33:11.0"
"삼각산로 1","강북구 수유동","127.025500200","37.637797700","100162","memory0014","KOR","[수유동]노동자들에게 보양식은 소금이었다?!","","강북구","수유동","","","","","02-3209-7123","민병화","민병화씨는 1966년 서울 미아리에 있는 친척집으로 상경했다. 자수 보조일을 시작으로 수십년동안 의류 제조업에 종사했다. 1960년대 미아리고개에 살았으며 결혼과 함께 1970년도부터 용산에 거주하고 있다.","수유리 자수 공장에서 일했던 민병화씨. 근로기준법도 노동법도 미비했던 1960년대. 수출 계약건을 맞추기 위해 휴일도 없이 하루 17시간-20시간씩 일했다는데... 그들의 보양식은 소금이었다?!","강북구 수유동","1960년대","http://m.memoryinseoul.sfac.or.kr/invite.do","","","","","","","","","","","","","","","기억제공자","기억제공자 소개","메모리","기억 속 장소","기억 속 시간","메모리인서울 참여하기","","","","","","","","","","","","","","","","1","1","#FF7F00","","2016-08-30 09:33:11.0","2016-08-30 09:33:11.0"
"창경궁로 185","종로구 봉천동","126.994070100","37.579296200","100162","memory0015","KOR","[창경궁]친구들과 창경원으로 놀러가다.","","종로구","봉천동","","","","","02-3209-7123","이명자","이명자씨는 1955년 서울 종로구 창신동에서 태어난 서울 토박이다. 창신동과 동대문 평화시장 등에 대한 기억을 갖고 있다.","창경궁은 예전에 창경원이라고 불렀다. 친구들끼리 집이 가까우니까 걸어서 동물원 구경을 갔다. 먼지가 나니까 물을 뿌리는 차들이 다녔다. 그 차를 휙 따라들어갔다가 길을 잃고 울기도……","관악구 봉천동 창경궁","1960년대","http://m.memoryinseoul.sfac.or.kr/invite.do","","","","","","","","","","","","","","","기억제공자","기억제공자 소개","메모리","기억 속 장소","기억 속 시간","메모리인서울 참여하기","","","","","","","","","","","","","","","","1","1","#FF7F00","","2016-08-30 09:33:11.0","2016-08-30 09:33:11.0"
"보국문로 108-4","성북구 정릉동 293-293","127.006936700","37.613475500","100162","memory0016","KOR","[정릉동]정릉동에서 물이 제일 좋은 집?","","성북구","정릉동","","293","293","","02-3209-7140","김연실","김연실씨는 1927년 전남장성에서 태어나 20살까지 살았다. 1940년대에 서울로 이주하여 정릉동에서 오래사셨다.","정릉동에 매일 같이 사람들이 몰리는 집이 있었다. 바로 김연실씨 할머니 댁이었는데 사람들이 몰리는 이유는 바로 물이 좋아서였다?! 그 당시 김연실씨 할머니 댁에서만 청수장 맑은 물이 콸콸콸 나왔다는데... 그 비결은 무엇이었을까?","성북구 정릉동","1960년대","http://m.memoryinseoul.sfac.or.kr/invite.do","","","","","","","","","","","","","","","기억제공자","기억제공자 소개","메모리","기억 속 장소","기억 속 시간","메모리인서울 참여하기","","","","","","","","","","","","","","","","1","2","#FF0000","","2016-08-30 09:33:11.0","2016-08-30 09:33:11.0"
"을지로 281","중구 을지로7가","127.009746781","37.566406960","100162","memory0017","KOR","[동대문]동대문 운동장에서의 마지막 경기","","중구","을지로7가","","","","","02-3209-7140","박준수","박준수씨는 1981년 생으로 사진작가로 활동중이다. 2007년 동대문 운동장 철거가 결정되고 나서 한 달 동안 동대문운동장의 마지막 모습을 사진에 담았고 몇 년 후 야구전문칼럼니스트 김은식 작가와 함께 이 사진들을 책으로 묶어서 출간했다. 동대문운동장을 비롯하여 서울의 사라져 가는 풍경들에 대해 무한한 애정을 가지고 있고 게속해서 서울의 단면을 담아내는 사진작업을 하고 있다.","2007년 8월 여름의 끝자락 충암고와 덕수고등학교의 봉황기 경기로 기억한다. 역사 속에 사라지게 되는 동대문 운동장의 마지막 야구경기였다. 허무하게 끝나버린 경기가 마치 동대문 운동장의 마지막과 비슷했다는데...","중구 동대문운동장","2000년대","http://m.memoryinseoul.sfac.or.kr/invite.do","","","","","","","","","","","","","","","기억제공자","기억제공자 소개","메모리","기억 속 장소","기억 속 시간","메모리인서울 참여하기","","","","","","","","","","","","","","","","1","2","#FF0000","","2016-08-30 09:33:10.0","2016-08-30 09:33:10.0"
"용마산로36길 22-8","광진구 중곡동 601-11","127.087480100","37.570574000","100162","memory0018","KOR","[중곡동]중곡동 언덕길에서의 재미있는 놀이는 끝이 없고..","","광진구","중곡동","","601-11","","","02-3209-7140","이헤주","이혜주씨는 1987년생으로 서울 송파구 잠실에서 태어나 광진구에서 주로 생활하였고 현재는 중랑구애 거주하십니다.","중곡동 그곳엔 연립주택이 많았다. 평지가 별로 없고 산 아래 언덕이 있고 학교에서 집까지 가는 길에 골목이 무척 많았다. 오르막 내리막길. 축구하고 놀고 골목에서도 놀고 굴리면 동그랗게 되는 콩벌레도 잡고…","중랑구 중곡동","1990년대","http://m.memoryinseoul.sfac.or.kr/invite.do","","","","","","","","","","","","","","","기억제공자","기억제공자 소개","메모리","기억 속 장소","기억 속 시간","메모리인서울 참여하기","","","","","","","","","","","","","","","795561077","5","2","#FF0000","","2016-08-30 09:33:11.0","2016-08-30 09:33:11.0"
"숭인동1길 44","종로구 숭인동 102-8","127.017677500","37.573206400","100162","memory0019","KOR","[숭인동]지금의 패션감각을 만들어준 고마운 동묘시장","","종로구","숭인동","","102-8","","","02-3209-7140","조은형","조은형씨는 1972년생으로 제주도에서 생활하다가 서울로 이주하여 16년동안 거주하고 있으며 창신동에서 라디오 진행자를 맡고 있다.","조은형씨가 종로구 창신동에서 지역아동센터 교사를 할 때 많이 이용한 도깨비 시장 동묘 시장. 시간과 안목만 있다면 싼 가격으로 보물을 찾는 것처럼 옷을 살 수 있었다는데?! 도깨비 시장을 통해 패션스타가 된 이야기를 들여다보자!","종로구 숭인동 동묘시장","2000년대","http://m.memoryinseoul.sfac.or.kr/invite.do","","","","","","","","","","","","","","","기억제공자","기억제공자 소개","메모리","기억 속 장소","기억 속 시간","메모리인서울 참여하기","","","","","","","","","","","","","","","","1","2","#FF0000","","2016-08-30 09:33:10.0","2016-08-30 09:33:10.0"
"청계천로 341","종로구 창신동","127.015755600","37.569728400","100162","memory0020","KOR","[청계천]카바이트 불빛으로 불야성을 이루었던 청계천 시장","","종로구","창신동","","","","","02-3209-7140","김철","김철씨는 1946년 출생하여 1963년도에 서울 충현동으로 상경했다. 동대문에서 금성 축구화 수리점을 50여년간 운영한 축구화 수선의 장인이다.","첫 영화관람은 청계극장에서 '진고개 신사'를 보았던 것이 기억난다. 청계천 시장은 카바이트 불빛으로 불야성을 이루었는데 그 당시 군복이 유행해서 강가에서 군복염색작업을 했었다고…","청계천 시장","1960년대","http://m.memoryinseoul.sfac.or.kr/invite.do","","","","","","","","","","","","","","","기억제공자","기억제공자 소개","메모리","기억 속 장소","기억 속 시간","메모리인서울 참여하기","","","","","","","","","","","","","","","795561078","3","4","#FF7F00 ","","2016-08-30 09:33:10.0","2016-08-30 09:33:10.0"
"인사동길 15-13","종로구 종로2가 37-4","126.987364200","37.571216500","100162","memory0021","KOR","[인사동]전통문화의 거리 인사동의 옛모습이 궁금하세요?","","종로구","종로2가","","37-4","","","02-3209-7140","문서영","문서영씨는 1958년에 태어나 유년시절 상경했다. 창천동 불광동 이문동을 거쳐 독산동에 거주했으며 현재 화가로 사람과 세상을 화폭에 담고 있다.","한국을 대표하는 전통문화의 거리 인사동! 외국인들에겐 한국 관광의 필수코스가 된 명소지만 70년대만 해도 인사동은 그저 허름한 한옥에 고서 가게와 필방 몇이 존재하던 좁은 골목길이었다고…","종로구 인사동","1970년대","http://m.memoryinseoul.sfac.or.kr/invite.do","","","","","","","","","","","","","","","기억제공자","기억제공자 소개","메모리","기억 속 장소","기억 속 시간","메모리인서울 참여하기","","","","","","","","","","","","","","","795561079","3","4","#FF0000","","2016-08-30 09:33:11.0","2016-08-30 09:33:11.0"
"","용산구 용산동","126.965789600","37.530282500","100162","memory0022","KOR","[용산구]시골보다 더 시골 같았던 용산","","용산구","용산동","","","","","02-3209-7140","신일현","신일현씨는 1961년에 충남 논산군에서 출생하셔서 대전에서 살다가 1990년대 서울 노원구 상계동으로 이주하였다. 현재는 마포구 신수동에 살고 있다.","90년대 후반에만 해도 용산은 시골 같았다? 시골에서 흔히 볼 수 있었던 돼지 키우는 우리 같은 집이 쭉 있었고 거기서 식당을 하기도 했다는데... 일반인들은 왕래도 드물었다던 용산의 10여년 전 모습을 들어보자.","용산구 용산동","1990년대","http://m.memoryinseoul.sfac.or.kr/invite.do","","","","","","","","","","","","","","","기억제공자","기억제공자 소개","메모리","기억 속 장소","기억 속 시간","메모리인서울 참여하기","","","","","","","","","","","","","","","","1","2","#FF0000","","2016-08-30 09:33:10.0","2016-08-30 09:33:10.0"
"동호로10길 69","중구 신당동","127.015339200","37.563206300","100162","memory0023","KOR","[신당동]신당동 떡볶이집의 원조","","중구","신당동","","","","","02-3209-7140","공종배","공종배씨는 1966년 전라북도 김제에서 태어나 1살때 부모님과 함께 서울 성북구 정릉동으로 이주하여 정릉동 신당동에서 생활하였다. 1990년대 초 해외로 잠시 거처를 옮겼다가 2006년 한국으로 귀국하여 북한산마을 재정착하게 되었다. 2009년 은평구 진관동 북한산 입구 이주단지 정착하여 현재까지 식당을 운영하며 거주하고 있다.","1970년대 후반 신당동에 떡볶이집들이 형성되기 시작할 즈음 공종배씨는 작고 허름하지만 연탄불에 올려놓고 정겹게 먹던 그 추억을 떠올렸다.","중구 신당동","1970년대","http://m.memoryinseoul.sfac.or.kr/invite.do","","","","","","","","","","","","","","","기억제공자","기억제공자 소개","메모리","기억 속 장소","기억 속 시간","메모리인서울 참여하기","","","","","","","","","","","","","","","795561080","5","2","#FF0000","","2016-08-30 09:33:11.0","2016-08-30 09:33:11.0"
"퇴계로 123","중구 충무로2가 93-2","126.986538800","37.560974500","100162","memory0024","KOR","[명동]명동 안주거리는 태극당 과자 냉차 그리고 낭만!","","중구","충무로2가","","93-2","","","02-3209-7140","박원경","박원경씨는 1941년생으로 서울에서 태어난 원로 연극인이다. 유년기와 청소년기를 서대문 동양극장 앞에서 보냈다. 고려대학교에서 국문과를 중퇴하고 1961년 서울예술대학이 남산드라마센터에 생겼을때 1기로 입학하여 본격적인 연극의 길로 들어서게 되었다. 연기로 시작하여 1971년도 신춘문예를 거치며 연출의 길로 들어서 교수로 연극계의 후배들을 양성하였다.","명동은 낭만이다. 태극당 친구네에서 가지고 온 과자하나 냉차 장수가 파는 구루마에서 산 냉차 한잔 그리고 집에서 슬쩍 가지고 온 정종 한병이면 온세상이 우리 것이던 그때 그 시절.","중구 명동","1970년대","http://m.memoryinseoul.sfac.or.kr/invite.do","","","","","","","","","","","","","","","기억제공자","기억제공자 소개","메모리","기억 속 장소","기억 속 시간","메모리인서울 참여하기","","","","","","","","","","","","","","","","1","2","#FF0000","","2016-08-30 09:33:11.0","2016-08-30 09:33:11.0"
"수색로 27","마포구 성산동 123-2","126.914751300","37.568672400","100162","memory0025","KOR","[모래내]모래가 쌓여서 ‘모래내’","","마포구","성산동","","123-2","","","02-3209-7140","진영옥","진영옥씨는 1939년 경기도 고양시에서 태어나 1950년대 서울 서대문구 모래내로 이사하여 살았으며 현재는 중구에 거주하고 있다.","모래내는 모래가 많은 동네여서 모래내로 불렸다?! 장마가 오면 북한산에서 내려온 모래가 층층히 쌓여서 모래내가 되었다는데... 가재가 많아서 ‘가재울’이라고도 불렸다고. 모래내 지명에 얽힌 재미난 이야기 속으로 들어가보자.","서대문구 모래내","1950년대","http://m.memoryinseoul.sfac.or.kr/invite.do","","","","","","","","","","","","","","","기억제공자","기억제공자 소개","메모리","기억 속 장소","기억 속 시간","메모리인서울 참여하기","","","","","","","","","","","","","","","","1","2","#FF0000","","2016-08-30 09:33:10.0","2016-08-30 09:33:10.0"
"계동길 33-9","종로구 계동 104-5","126.984828700","37.579283300","100162","memory0026","KOR","[북촌]아직도 눈에 선한 재동 골목길","","종로구","계동","","104-5","","","02-3209-7140","김정은","김정은씨는 1954년 강원도 춘천에서 태어나 홍천에서 유년기를 보내고 66년 중학교 진학을 위해 상경했다. 창덕여중과 창덕여고에서 소중한 학창시절을 보내고 숙명여대 졸업 후 모교인 창덕여고에서 교사 생활을 했다. 원서동 잠원동 신사동 가락동 등으로 거주지를 옮겼으며 지금은 서대문구 홍재동에서 살고 있다","창덕여중으로 전학오면서 상경한 김정은 씨! 당시 어린 김정은 씨 눈에 비친 학교는 깨끗하고 단정했다고. 백송과 붉은 벽돌 건물이 인상적이었고 학교가 있던 재동 골목과 전차를 타고 종로에서 내려 낙원동을 끼고 걷던 기억도 아직 생생하기만 하다는데…","종로구 재동","1960년대","http://m.memoryinseoul.sfac.or.kr/invite.do","","","","","","","","","","","","","","","기억제공자","기억제공자 소개","메모리","기억 속 장소","기억 속 시간","메모리인서울 참여하기","","","","","","","","","","","","","","","795561081","3","4","#FF0000","","2016-08-30 09:33:11.0","2016-08-30 09:33:11.0"
"북촌로 101","종로구 계동 1-5","126.984836200","37.581473600","100162","memory0027","KOR","[북촌]한옥이 많았던 가회동의 풍경","","종로구","계동","","1-5","","","02-3209-7140","옥재규","옥재규씨는 1938년 경상도에서 태어나 1960년대 서울 가회동으로 이주했다. 현재는 강북구 삼각동에서 거주하고 있다.","한옥이 많아서 운치도 있고 부자들도 많이 살았다고 한다. 그리고 그 당시에는 장작이 연료로 쓰이고 수돗물이 없어서 펌프로 물을 퍼서 사용하였다고…","종로구 가회동","1960년대","http://m.memoryinseoul.sfac.or.kr/invite.do","","","","","","","","","","","","","","","기억제공자","기억제공자 소개","메모리","기억 속 장소","기억 속 시간","메모리인서울 참여하기","","","","","","","","","","","","","","","","1","2","#FF0000","","2016-08-30 09:33:11.0","2016-08-30 09:33:11.0"
"북촌로4길 7","종로구 삼청동","126.985633700","37.579967300","100162","memory0028","KOR","[북촌]광복 이전 초등학교 일본어 면접","","종로구","삼청동","","","","","02-3209-7140","김영희","김영희씨는 1937년 서울 출생으로 공무원을 지내는 아버지를 따라 지방으로 이주를 자주 하였으며 한국 전쟁 이후부터 대학 입학 때까지는 수원에 살았다. 대학 입학과 함께 서울에서 살기 시작했으며 현재 동대문구 장안동에 살고 있다.","김영희 씨가 초등학교에 입학하던 광복 이전에는 입학할 때 일본어로 시험을 보았다. 1945년에 학군제가 도입되면서 언니 오빠가 다니던 재동초등학교가 아니라 삼청초등학교에 가게 됐다고 한다. 입학을 할 때 간단하게 일본어로 집과 나이를 묻는 게 고작이었는데.","종로구 가회동","1940년대","http://m.memoryinseoul.sfac.or.kr/invite.do","","","","","","","","","","","","","","","기억제공자","기억제공자 소개","메모리","기억 속 장소","기억 속 시간","메모리인서울 참여하기","","","","","","","","","","","","","","","","1","2","#FF0000","","2016-08-30 09:33:10.0","2016-08-30 09:33:10.0"
"","종로구 삼청동","126.988053500","37.591945000","100162","memory0029","KOR","[북촌]삼청동은 출입불가 지역?!","","종로구","삼청동","","","","","02-3209-7140","이종완","이종완씨는 1960년에 서울 노량진에서 출생하여 주로 서울에서 살았다. 젊은 시절 명동을 좋아하여 자주 다녔기 때문에 명동에 관한 상세한 기억들을 많이 보유하고 있다.","지금은 대표적인 관광 명소 삼청동이 70년대에는 발도 못 붙이는 곳이었다?! 군정시대 지도자의 안보를 위해 청와대 근처는 접근을 못할 정도로 경비가 삼엄했다. 일반인은 지금의 현대 미술관 위치까지만 갈 수 있었다는데...","종로구 삼청동","1970년대","http://m.memoryinseoul.sfac.or.kr/invite.do","","","","","","","","","","","","","","","기억제공자","기억제공자 소개","메모리","기억 속 장소","기억 속 시간","메모리인서울 참여하기","","","","","","","","","","","","","","","795561082","5","2","#FF0000","","2016-08-30 09:33:10.0","2016-08-30 09:33:10.0"
"북촌로 134-3","종로구 삼청동","126.984443600","37.589465900","100162","memory0030","KOR","[북촌]삼청공원 위의 수영장?!","","종로구","삼청동","","","","","02-3209-7140","이경자","이경자씨는 1956년 서울 삼청동(팔판동)에서 태어나 최근까지 거주한 삼청동 토박이다. 지금과는 많이 다른 1960년대 삼청동의 모습을 많이 기억하고 있다.","개천이 흘렀던 삼청동. 여름이면 삼청공원쪽으로 피서를 가고는 했는데 아버지는 무쇠솥에 보신탕을 끓였고 아이들은 그 곳에서 멱을 감았다. 폭포처럼 내리던 물줄기에 바위 미끄럼틀을 타던 그 곳은 서울이 아닌 듯 했다는데..","종로구 삼청동","1960년대","http://m.memoryinseoul.sfac.or.kr/invite.do","","","","","","","","","","","","","","","기억제공자","기억제공자 소개","메모리","기억 속 장소","기억 속 시간","메모리인서울 참여하기","","","","","","","","","","","","","","","","1","2","#FF0000","","2016-08-30 09:33:10.0","2016-08-30 09:33:10.0"
"","종로구 삼청동","126.981805400","37.590636000","100162","memory0031","KOR","[북촌]삼청동 길은 개천이었다?!","","종로구","삼청동","","","","","02-3209-7140","이경자","이경자씨는 1956년 서울 삼청동(팔판동)에서 태어나 최근까지 거주한 삼청동 토박이다. 지금과는 많이 다른 1960년대 삼청동의 모습을 많이 기억하고 있다.","1960년대 삼청동은 완전히 다른 모습이었다. 국무총리 공관 앞 팔판동의 작은 길이 유일한 인도였고 지금 자동차가 다니는 큰 길은 전부 개천이었다. 그 개천에서 엄마들은 빨래 방망이로 빨래를 두드렸다.","종로구 삼청동","1960년대","http://m.memoryinseoul.sfac.or.kr/invite.do","","","","","","","","","","","","","","","기억제공자","기억제공자 소개","메모리","기억 속 장소","기억 속 시간","메모리인서울 참여하기","","","","","","","","","","","","","","","795561083","3","4","#0000FF","","2016-08-30 09:33:11.0","2016-08-30 09:33:11.0"
"종로3길 24","종로구 청진동 257-5","126.979385300","37.571368200","100162","memory0032","KOR","[피맛골]또 다른 세계가 펼쳐지던 곳! 피맛골","","종로구","청진동","","257-5","","","02-3290-7043","한은(가명)","한은(가명)씨는 1981년 전주에서 출생했다. 대학에 진학하면서 상경했고 대학 근처였던 홍대 앞의 변화를 지켜봐 왔다. 현재는 마포구 연남동에 거주하고 있다.","사람들로 붐비는 공간이 싫어 종로에 가면 늘 뒷길로 다녔다는 한은(가명)씨! 때문에 오밀조밀 모여있던 피맛골을 좋아했다고. 특히 좁은 골목 속에 들어서면 마치 다른 세계로 입장하는 것 같아 좋았다는데...이제는 예전의 흔적을 찾아보기 어려운 피맛골을 떠올리면 아쉬운 마음이 크다고...","종로1.2.3.4가동","2000년대","http://m.memoryinseoul.sfac.or.kr/html/speaking/agree.asp","","","","","","","","","","","","","","","기억제공자","기억제공자 소개","메모리","기억 속 장소","기억 속 시간","메모리인서울 참여하기","","","","","","","","","","","","","","","","1","4","#0000FF","","2016-08-30 09:33:10.0","2016-09-05 11:57:42.0"
"종로3길 24","종로구 청진동 257-2","126.979317200","37.571399400","100162","memory0033","KOR","[피맛골]사라져서 아쉬운 그 시절 청춘들의 놀이터","","종로구","청진동","","257-2","","","02-3290-7043","김금자","김금자씨는 1940년 강원도 영월에서 태어나 성장기를 보내고 강원도 화력발전소에서 근무하다 남편을 만났다. 이후 1964년 상경해 서대문구 냉천동 등 서울 각지로 주거지를 옮기며 50여년간 생활했다.","단성사 국도극장 우미관 등 6~70년대 청춘들이 줄을 섰던 극장들과 당시 청춘들이 목청 높여 노래 부르고 함께 술을 마시던 종로의 피맛골... 김금자 씨는 이제는 사라진 그 시절 추억의 장소를 떠올리면 마음 한 쪽이 시려온다는데…","종로1.2.3.4가동","1970년대","http://m.memoryinseoul.sfac.or.kr/html/speaking/agree.asp","","","","","","","","","","","","","","","기억제공자","기억제공자 소개","메모리","기억 속 장소","기억 속 시간","메모리인서울 참여하기","","","","","","","","","","","","","","","","1","4","#0000FF","","2016-08-30 09:33:10.0","2016-08-30 09:33:10.0"
"무교로 37","종로구 무교동","126.979262300","37.569277200","100162","memory0034","KOR","[무교동]70년대 먹거리","","종로구","무교동","","","","","02-3290-7043","유광수","유광수씨는 1952년 서울 종로구 와룡동에서 태어났다. 어린시절과 모든 학창시절을종로구 와룡동에서 보내고 1980년 결혼하고 서초구 잠원동에서 생활했다. 1983년엔 강남구 신사동 1985~1991년엔 경기도 과천 안산 송파구 가락동을 거쳐 1992~2009년까지 오랜시간을 서초구 잠원동에서 생활함. 2009년~현재는 서대문구 홍재동서 살고 있다.","이제는 이름만 남은 무교동 피맛골. 과거에는 교보빌딩에서부터 보신각이 있는 곳까지 음식점들이 즐비했었다. 그곳 ‘열차집’에서 책을 돈 대신 맡기고 먹던 시절이 있었다. 돈가스는 일 년에 한번 먹을까 말까한 귀한 음식이었고 바나나는 유복한 집에서도 먹기 힘들었던 귀한 과일이었다.","무교동","1970년대","http://m.memoryinseoul.sfac.or.kr/html/speaking/agree.asp","","","","","","","","","","","","","","","기억제공자","기억제공자 소개","메모리","기억 속 장소","기억 속 시간","메모리인서울 참여하기","","","","","","","","","","","","","","","","1","4","#0000FF","","2016-08-30 09:33:10.0","2016-08-30 09:33:10.0"
"종로3길 24","종로구 청진동 257-2","126.979320500","37.571406600","100162","memory0035","KOR","[피맛골]안타까운 피맛골의 과거와 현재","","종로구","청진동","","257-2","","","02-3290-7043","김유신","김유신씨는 1961년에 서울에서 출생하였다. 동대문구 답신리->경기도 화전->종로구 필운동->청진동으로 옮기며 살아왔다. 학창시절은 (1960-70년대) 종로에서 지내며 많은 기억를 가지고 있다.","종로는 정말 재미있는 곳이다. 그러나 피맛골이 사라져서 정말 안타깝다. 600년동안 이어진 역사가 있는 피맛골에 대하여.","종로1.2.3.4가동","1970년대","http://m.memoryinseoul.sfac.or.kr/html/speaking/agree.asp","","","","","","","","","","","","","","","기억제공자","기억제공자 소개","메모리","기억 속 장소","기억 속 시간","메모리인서울 참여하기","","","","","","","","","","","","","","","","1","4","#0000FF","","2016-08-30 09:33:10.0","2016-08-30 09:33:10.0"
"종로 19","종로구 종로3가","126.979702400","37.570902200","100162","memory0036","KOR","[종로3가]서울의 학원가였던 종로","","종로구","종로3가","","","","","02-3290-7043","곽영순","곽영순씨는 1953년 대구에서 출생하였다가 15세때 서울 미아동으로 이주하였다. 미아동으로 이주했을 때 정릉 쪽 뒷산을 자주 올랐다고 한다. 미아동과 남대문 종로에대한 기억을 많이 가지고있다.","종로 뒤쪽으로는 재수학원이나 공무원 입시학원 등이 많았었다. 그 덕에 종로에는 젊은 청춘들이 많이 보였다. 피맛골에서 인사동에서 저렴하게 술을 마실 수 있는 곳이 많아 학원생들이 많이 이용하곤 했다.","종로3가","1970년대","http://m.memoryinseoul.sfac.or.kr/html/speaking/agree.asp","","","","","","","","","","","","","","","기억제공자","기억제공자 소개","메모리","기억 속 장소","기억 속 시간","메모리인서울 참여하기","","","","","","","","","","","","","","","","1","4","#0000FF","","2016-08-30 09:33:10.0","2016-08-30 09:33:10.0"
"명동8길 18-1","중구 명동","126.984677000","37.562948000","100162","memory0037","KOR","[명동]IMF로 인해 고생했던 의상 브랜드 공장","","중구","명동","","","","","02-3290-7043","정형기","정형기씨는 1952년 전라남도 장흥에서 태어나신 정형기 씨는 1971년 상경해 마포구 동작구 은평구를 거쳐 현재는 서대문구 홍제동에 아내 이매화씨와 살고 계신다.","일하던 장소가 종로에서 명동으로 옮겨간 것이 1984년. 봉제 기술자협회를 만들기도 했고 1996년에는 신세계백화점에서 만든 자체 브랜드 회사에서 일하게 되었다. 회사 유니폼으로 먼저 시작하고 5년간 근무를 했는데 IMF가 오면서 그 브랜드는 사라지고 그 일 때문에 차린 공장을 유지하기 위해 많은 고생을 했다.","명동","1980년대","http://m.memoryinseoul.sfac.or.kr/html/speaking/agree.asp","","","","","","","","","","","","","","","기억제공자","기억제공자 소개","메모리","기억 속 장소","기억 속 시간","메모리인서울 참여하기","","","","","","","","","","","","","","","","1","4","#0000FF","","2016-08-30 09:33:10.0","2016-08-30 09:33:10.0"
"신촌역로 43","서대문구 창천동","126.940429300","37.559129800","100162","memory0038","KOR","[창천동]대한민국의 역사적인 순간을 함께 보내다!","","서대문구","창천동","","","","","02-3290-7043","스즈키치카에","스즈키치카에씨는 1979년에 한국으로 왔으며 일본대사관에서 첫 서울 생활을 하셨다. 이후로 일본과 한국을 오가시다가 일본총영사관에서 일하게 된 남편을 따라 한국에 오셨고 현재는 일본으로 돌아가셨다.","1970년대 후반에 한국에 와서 가장 놀랐던 사건은 10.26 사태였다. 통금 시간 민방위 훈련 국기 하향식 등 한국에는 일본과 달랐던 풍경들도 많았다. 또한 그때는 한국인과 외국인은 다른 건물에서 따로 살아야 했고 컬러 텔레비전으로 바뀌는 시기이기도 했다는데. 스즈키 치카에 씨는 그렇게 대한민국의 발달과 역사적인 순간을 함께 보냈다.","창천동","1970년대","http://m.memoryinseoul.sfac.or.kr/html/speaking/agree.asp","","","","","","","","","","","","","","","기억제공자","기억제공자 소개","메모리","기억 속 장소","기억 속 시간","메모리인서울 참여하기","","","","","","","","","","","","","","","","1","4","#0000FF","","2016-08-30 09:33:10.0","2016-08-30 09:33:10.0"
"창경궁로 88","종로구 예지동","126.999618000","37.570079000","100162","memory0039","KOR","[예지동]새벽 5시만 되면 인파로 붐볐던 전통시장","","종로구","예지동","","","","","02-3290-7043","박순섭","박순섭씨는 1965년 전라북도 전주출생으로 부산과 여수를 거쳐 1988년 상경하셨다. 광장시장에서 전통 금박과 한복 소품 관련 가게를 하신다.","서울에 대한 첫 인상은 바로 갑갑하다는 것이었다. 전통시장이 활성화될 때 일을 시작해 숙식을 모두 시장에서 해결했다. 새벽 5시만 되면 시장에 인파가 많았고 직접 만든 전통 핸드백의 수요자가 많았다. 이 분야는 대부분 가족끼리 함께 일을 했다.","예지동","1980년대","http://m.memoryinseoul.sfac.or.kr/html/speaking/agree.asp","","","","","","","","","","","","","","","기억제공자","기억제공자 소개","메모리","기억 속 장소","기억 속 시간","메모리인서울 참여하기","","","","","","","","","","","","","","","","1","4","#0000FF","","2016-08-30 09:33:10.0","2016-08-30 09:33:10.0"
"창경궁로 88","종로구 종로4가 165-6","126.999630100","37.570099200","100162","memory0040","KOR","[예지동]맛있는 광장시장 이야기","","종로구","종로4가","","165-6","","","02-3290-7043","김사직","김사직씨는 1952년에 강원 양양에서 출생하였다. 양양에서 고등학교를 졸업한 직후인 1971년 일을 하기 위해 김사직씨는 서울로 상경하였다. 14년간 동숭동에 살다가 결혼과 함께 중랑구 묵동으로 이주하여 현재까지 거주하고 있다. 현재 서울광장시장 상인총연합회장으로 활동중이다.","지하철 1호선이 생겨나면서 점차 광장시장의 먹거리가 생겨나다.","예지동","1980년대","http://m.memoryinseoul.sfac.or.kr/html/speaking/agree.asp","","","","","","","","","","","","","","","기억제공자","기억제공자 소개","메모리","기억 속 장소","기억 속 시간","메모리인서울 참여하기","","","","","","","","","","","","","","","","1","4","#0000FF","","2016-08-30 09:33:10.0","2016-08-30 09:33:10.0"
"지양로10길 3","양천구 신월동","126.833330400","37.522697000","100162","memory0041","KOR","[신월동]리어카를 끌며 보리차 팔던 할아버지!","","양천구","신월동","","","","","02-3290-7043","임지현","임지현씨는 1983년 서울에서 태어나신 임지현 씨는 어렸을 때부터 양천구에서 사셨는데 신월동에 계시다가 결혼 후 신정동으로 옮기셨다.","생일날이 되면 전통시장에서 즉석으로 튀겨주는 치킨이 참 좋았다. 리어카에서 보리차를 팔던 할아버지도 기억이 나는데. 아파트로 바뀌기 전 연립주택 주차장에서 줄넘기 하던 기억 장학사를 맞이하기 위해 초등학교 나무 바닥에 윤을 내던 시절 등이 생생하다.","신월동","1990년대","http://m.memoryinseoul.sfac.or.kr/html/speaking/agree.asp","","","","","","","","","","","","","","","기억제공자","기억제공자 소개","메모리","기억 속 장소","기억 속 시간","메모리인서울 참여하기","","","","","","","","","","","","","","","","1","4","#0000FF","","2016-08-30 09:33:10.0","2016-08-30 09:33:10.0"
"연희맛로 20","서대문구 연희동","126.929892400","37.567006800","100162","memory0042","KOR","[연희동]유일한 대형할인점 연희동 사러가 쇼핑센터","","서대문구","연희동","","","","","02-3290-7043","김영신","김영신씨는 전라남도 목포출생이며 인천에서 살다가 40대 중반부터 서울에 살기 시작하셨다. 현재는 서대문구 연희동에 살고 계신다.","연희동에서는 사러가 쇼핑센터가 유일하게 대형할인점이었다. 전통시장도 없었다고. 주변에 대학이 많아서 걸어 다니는 학생들이 많은 편이었으며 근처에 지하철역이 없어 마을버스를 타고 다녀야 했다는데.","연희동","2000년대","http://m.memoryinseoul.sfac.or.kr/html/speaking/agree.asp","","","","","","","","","","","","","","","기억제공자","기억제공자 소개","메모리","기억 속 장소","기억 속 시간","메모리인서울 참여하기","","","","","","","","","","","","","","","","1","4","#0000FF","","2016-08-30 09:33:10.0","2016-08-30 09:33:10.0"
"이태원로14길 6","용산구 이태원동","126.990001300","37.533848500","100162","memory0043","KOR","[이태원동]이태원에 터널이 생기면서 사라진 시장과 학교","","용산구","이태원동","","","","","02-3290-7043","권서경","권서경씨는 1965년 강원도출생이며 부모님의 교육열로 서울로 이사하셨다. 유치원부터 대학가지 서울에서 학교에 다니셨고 현재 송파구 잠실동에 거주하고 계신다.","어릴 적 서울에서 대표적인 곳이 당시 창경원으로 불리었던 창경궁이었다. 동물을 본 기억이 아직도 생생하다. 그때는 용산에 살고 계셨다. 한 방에 네 형제가 지내면서 집 근처 구멍가게의 불량 풍선과 1원짜리 과자 그리고 전통시장의 달고나를 녹여 먹기도 했다는 권서경 씨. 시장 안 다양한 사람과 다채로운 풍경이 즐거웠던 이태원에 터널이 뚫리면서 그 시장도 학교도 없어졌다는데.","이태원동","1980년대","http://m.memoryinseoul.sfac.or.kr/html/speaking/agree.asp","","","","","","","","","","","","","","","기억제공자","기억제공자 소개","메모리","기억 속 장소","기억 속 시간","메모리인서울 참여하기","","","","","","","","","","","","","","","","1","4","#0000FF","","2016-08-30 09:33:10.0","2016-08-30 09:33:10.0"
"장문로49길 100","용산구 한남동","127.003107500","37.530732100","100162","memory0044","KOR","[한남동]그 많던 시장은 어디로 갔을까?","","용산구","한남동","","","","","02-3290-7043","황우반","황우반씨는 1937년 강화도에서 태어나서 초등학교때 서울 공덕동으로 이주하였다. 중학생때 한국전쟁을 겪으며 부산으로 피난을 갔다왔다. 대한통운에서 인사과장을 엮임하셨고 결혼한뒤 1969년부터 한남동에 터를 잡고 지금까지 거주하고 있다.","전통시장이 점점 사라지고 있는 요즘. 전통시장 한번 찾아가려면 차를 타고 가야 할 정도다! 그런데  용산동 한남동 이태원에도 큰 시장이 있었다는데…","한남동","1980년대","http://m.memoryinseoul.sfac.or.kr/html/speaking/agree.asp","","","","","","","","","","","","","","","기억제공자","기억제공자 소개","메모리","기억 속 장소","기억 속 시간","메모리인서울 참여하기","","","","","","","","","","","","","","","","1","4","#0000FF","","2016-08-30 09:33:10.0","2016-08-30 09:33:10.0"
"홍익로3길 1","마포구 서교동 350-6","126.922508000","37.554417000","100162","memory_00001","KOR","[서교동]라일락 향기가 가득했던 서교동","","마포구","서교동","","350","6","","02-3209-7123","서영주","서영주시는 1940년에 대구에서 태어나 서울 중구 중림동으로 시집왔다. 1070년대에 서교동으로 이사해서 10년간 살다가 현재 다시 중림동에서 거주하고 있다.","집집마다 라일락꽃이 피던 동네가 있었으니...  바로 1970년대 서교동! 동네에 들어서면 꽃향기가 은은히 퍼져 기분까지 좋게 만들던 동네였다는데? 상업시설이 들어선 지금과 많이 달랐던 서교동의 옛 모습을 들어보자","서교동","1970년대","http://m.memoryinseoul.sfac.or.kr/invite.do","","","","","","","","","","","","","","","기억제공자","기억제공자 소개","메모리","기억 속 장소","기억 속 시간","메모리인서울 참여하기","","","","","","","","","","","","","","","795561084","5","1","#FF7F00","","2016-08-30 09:33:11.0","2016-08-30 09:33:11.0"
"대학로 119","종로구 명륜4가 94-1","127.001683600","37.581922700","100162","memory_00002","KOR","[대학로]전설의 학림다방","","종로구","명륜4가","","94-1","","","02-3209-7123","박취서","박취서씨는 충남 대전에서 태어나 서울대학교 약학대학에 입학하면서 상경하였다. 1960년부터 1969년까지 종로구 사직동에서 살았으며 이후 미국으로 유학을 떠났고 현재까지 미국에서 살고 있다.","대학로의 전설 ‘학림다방’ 1956년부터 시작해서 아직도 영업을 하고 있는 이 곳은 서울에서 가장 오래된 다방이다. 서울대 학생들이 모여 인생에 대해 토론하던 구심점이 되는 곳이었다고...","대학로 학림다방","1960년대","http://m.memoryinseoul.sfac.or.kr/invite.do","","","","","","","","","","","","","","","기억제공자","기억제공자 소개","메모리","기억 속 장소","기억 속 시간","메모리인서울 참여하기","","","","","","","","","","","","","","","","1","1","#FF7F00","","2016-08-30 09:33:11.0","2016-08-30 09:33:11.0"
"","성동구 금호동","127.023925200","37.543474600","100162","memory_00003","KOR","[한강]수영해서 건넜던 그 시절의 한강","","성동구","금호동","","","","","02-3209-7123","김일진","김일진씨는 1948년 이북에서 출생해 50년대부터 쭉 서울에서 살았다. 공무원으로 강남구 상섬동 등에서 근무했으며 현재는 종로구 부암동에 거주하고 있다. 어릴 때 살았던 성동구 금호동의 옛 모습과 한강을 수영해서 건너던 기억이 생생하다.","1950년대엔 서울에서 가장 촌이었다는 성동구 금호동! 금호동 너머는 한강이고 한강 너머는 압구정동이었다는데... 그 시절엔 수영을 해서 한강을 건너고 겨울에 한강에 얼음이 얼면 썰매와 스케이트도 탔다는데…","금호동","1950년대","http://m.memoryinseoul.sfac.or.kr/invite.do","","","","","","","","","","","","","","","기억제공자","기억제공자 소개","메모리","기억 속 장소","기억 속 시간","메모리인서울 참여하기","","","","","","","","","","","","","","","795561085","3","1","#FF7F00","","2016-08-30 09:33:11.0","2016-08-30 09:33:11.0"
"의사당대로 110","영등포구 여의도동","126.924717200","37.519922400","100162","memory_00004","KOR","[여의도]모래바람 쌩쌩 불던 섬 여의도","","영등포구","여의도동","","","","","02-3209-7123","김춘자","김춘자씨는 1940년 경상북도 김천에서 태어나 결혼 후 1969년에 교육 공무원이었던 남편과 함께 서울로 이주하였다. 영등포구 신길동에서 처음 서울 생활을 시작했으며 1978년에 여의도 미성아파트 아파트에 입주해 오랫동안 거주했다.","1978년 60대 1의 경쟁률을 뚫고 청약에 당첨되어 여의도 미성 아파트에 입주 하게 된 김춘자씨! 그 시절 여의도는 말 그대로 강 위에 떠 있는 섬이었다. 조경시설도 하나 없이 허허 벌판에 모래바람만 쌩쌩 불던 곳이었다는데...","여의도","1980년대","http://m.memoryinseoul.sfac.or.kr/invite.do","","","","","","","","","","","","","","","기억제공자","기억제공자 소개","메모리","기억 속 장소","기억 속 시간","메모리인서울 참여하기","","","","","","","","","","","","","","","","1","1","#FF7F00","","2016-08-30 09:33:11.0","2016-08-30 09:33:11.0"
"종로 66","종로구 종로2가","126.984740000","37.569958500","100162","memory_00005","KOR","[종로]서울에 있어줘서 고마웠다! 종로서적","","종로구","종로2가","","","","","02-3209-7123","강영중","강영중씨는 1954년생으로 중학교 졸업 후 상경해 종로구 창신동에 자리를 잡았다. 돌아보면 조금 불편했어도 낭만이 있던 70년대의 서울이 정겹다. 현재는 종로구 이화동에 거주하고 있다.","서울시 종로구 종로2가에 위치했던 종로서적! 우리나라 서점 중에서 가장 긴 역사를 자랑하는 종로서적은 7~80년대 학생들에겐 서울의 유일한 휴식공간이자 문화공간이었다고. CCTV가 없던 그 시절엔 서점 입구에서 가방을 맡기고 들어갔고 책 분실 방지를 위해 서점 곳곳에서 아저씨들이 감시를 하기도 했다는데…","종로2가 종로서적","1970년대","http://m.memoryinseoul.sfac.or.kr/invite.do","","","","","","","","","","","","","","","기억제공자","기억제공자 소개","메모리","기억 속 장소","기억 속 시간","메모리인서울 참여하기","","","","","","","","","","","","","","","","1","1","#FF7F00","","2016-08-30 09:33:11.0","2016-08-30 09:33:11.0"
"필운대로1길 34","종로구 필운동 12","126.966736600","37.578472900","100162","memory_00006","KOR","[배화여고]독특한 건축미를 자랑하는 배화여고","","종로구","필운동","","12","","","02-3209-7123","이선영","이선영씨는 1973년 군산에서 태어나 유년시절을 보냈다. 아버지의 사업으로 인해 12살에 온 가족이 상경한 후 서울시 서대문구 북가좌동에서 30년을 살았다. 결혼 후 4개월 전 녹번동으로 이사했다. 영화 촬영감독으로 서울의 곳곳을 누볐다.","100년이 넘는 역사답게 20세기 초 서양 선교사 숙소 건축의 특징을 간직한 배화여고는 그 외관 때문에 80년대부터 유독 드라마와 영화 촬영이 많이 이뤄졌다는데... 촬영 덕분에 하이틴스타도 가까이서 볼 수 있었지만 워낙 건물이 오래돼 교내에 떠도는 괴담도 많았다고…","종로구 필운동 배화여고","1980년대","http://m.memoryinseoul.sfac.or.kr/invite.do","","","","","","","","","","","","","","","기억제공자","기억제공자 소개","메모리","기억 속 장소","기억 속 시간","메모리인서울 참여하기","","","","","","","","","","","","","","","","1","1","#FF7F00","","2016-08-30 09:33:11.0","2016-08-30 09:33:11.0"
"동소문로 177","성북구 돈암동 20-6","127.021539800","37.597870300","100162","memory_00007","KOR","[미아리고개]'단장의 미아리고개'의 의미","","성북구","돈암동","","20-6","","","02-3209-7123","이명구","이명구씨는 1955년에 출생하였으며 4살에 부모님과 함께 서울로 올라와서 한강변에 살았다. 59년에 사라호 태풍으로 수재민이 되었고 미아리로 집단 이주하였다. 미아리 종로 돈암동에 오래 거주했다.","‘미아리 고개’하면 넘어가기 힘든 험준한 고개라는 이미지와 함께 ‘단장의 미아리 고개’라는 말이 먼저 떠오른다. ‘단장의 미아리 고개’는 유행했던 노래 제목에서 나온 말인데 한국전쟁 때 북한군들이 퇴각하면서 많은 사람들을 인질로 끌고 가면서 이별의 아픔을 다룬 노래였다. 하지만 노랫 속 그 이유가 아니더라도 미아리 고개는 넘어가기 힘들었다는데…","돈암동 미아리 고개","1960년대","http://m.memoryinseoul.sfac.or.kr/invite.do","","","","","","","","","","","","","","","기억제공자","기억제공자 소개","메모리","기억 속 장소","기억 속 시간","메모리인서울 참여하기","","","","","","","","","","","","","","","","1","1","#FF7F00","","2016-08-30 09:33:11.0","2016-08-30 09:33:11.0"
"은천로 69","관악구 봉천동 622-1","126.942820100","37.486866300","100162","memory_00008","KOR","[신림동]신림동에는 똥통이 있었다?!","","관악구","봉천동","","622-1","","","02-3209-7123","김정욱","김정욱씨는 1956년 경기도 시흥에서 태어나 3살 때 서울로 이사와서 유락동에서 유년시절을 보내고 다시 시흥으로 이사했다. 65년도에 신림동으로 이사하면서부터 서울에 쭉 살고 있다.","1963년도에 와서야 서울시가 된 관악구. 말이 서울이지 초창기에는 시골과 다름없었는데~ 청계천 이주사업으로 인해 인구가 갑자기 늘어나게 된 봉천동과 신림1950동! 관악구에 하나밖에 없었던 은천초등학교가 똥통초등학교로 불리게 된 사연은?!","신림동","1960년대","http://m.memoryinseoul.sfac.or.kr/invite.do","","","","","","","","","","","","","","","기억제공자","기억제공자 소개","메모리","기억 속 장소","기억 속 시간","메모리인서울 참여하기","","","","","","","","","","","","","","","","1","1","#FF7F00","","2016-08-30 09:33:11.0","2016-08-30 09:33:11.0"
"도곡로 194","강남구 도곡동","127.040994300","37.491984600","100162","memory_00009","KOR","[도곡동]강남의 놀라운 발전","","강남구","도곡동","","","","","02-3209-7123","성대열","성대열씨는 1948년 경남 통영 출생으로 고교졸업 후 1967년 한국은행에 입사 정년까지 채웠다. 그 후 봉천동을 도곡동을 거쳐 현재는 은평구 문화해설사로 제2의 인생을 즐기고 있다.","예전에는 도곡동이 서울의 마지막이다라고 생각할 정도로 지금의 타워팰리스자리가 배추밭이었다. 지금 코엑스자리가 쓰레기하치장이었다. 테헤란로는 허허벌판 흙덩어리였다.. 압구정동신사동은 배밭이었다.","도곡동","1970년대","http://m.memoryinseoul.sfac.or.kr/invite.do","","","","","","","","","","","","","","","기억제공자","기억제공자 소개","메모리","기억 속 장소","기억 속 시간","메모리인서울 참여하기","","","","","","","","","","","","","","","795561086","5","2","#0000FF","","2016-08-30 09:33:11.0","2016-08-30 09:33:11.0"
"송파대로 345","송파구 가락동","127.104847100","37.499282100","100162","memory_00010","KOR","[가락동]가락아파트의 정 많던 이웃이야기","","송파구","가락동","","","","","02-3209-7123","이진화","이진화씨는 1968년 경상북도 군위에서 출생하였다. 대학교 1학년 때 서울 상경하여 사당동에서 자취하며 대학 생활을 했고 27살에 신혼살림 시작하며 삼전동으로 이주하였다. 이후 가락동으로 이사 5-6년 살다가 장지동으로 이사하였다.","1990년대 시골스러운 분위기에 정 많던 이웃이 살던 가락동 가락 아파트! 아파트 문은 항상 활짝 열어두었으며 서로 집을 오가며 점심을 해먹었다. 바쁘거나 일이 있을 때는 아이들을 대신 봐주는 가족과 같은 사람들이었다","가락동 가락아파트","1990년대","http://m.memoryinseoul.sfac.or.kr/invite.do","","","","","","","","","","","","","","","기억제공자","기억제공자 소개","메모리","기억 속 장소","기억 속 시간","메모리인서울 참여하기","","","","","","","","","","","","","","","795561087","5","1","#FF7F00","","2016-08-30 09:33:11.0","2016-08-30 09:33:11.0"