"서비스구분","서비스ID","대분류명","소분류명","서비스상태","서비스명","결제방법","장소명","서비스대상","바로가기URL","장소X좌표","장소Y좌표","서비스개시시작일시","서비스개시종료일시","접수시작일시","접수종료일시","지역명"
"자체","S160902145632154047","교육","체험/견학","접수종료","고척스카이돔 상설투어프로그램 신청","유료(요금안내문의)","고척스카이돔","제한없음","http://yeyak.seoul.go.kr/reservation/view.web?rsvsvcid=S160902145632154047","","","2016-09-12 00:00:00.0","2020-09-01 00:00:00.0","2016-09-12 09:00:00.0","2016-09-25 23:00:00.0","구로구"
"자체","S160919170354141117","교육","체험/견학","접수종료","고척스카이돔 상설투어프로그램 신청","유료(요금안내문의)","고척스카이돔","제한없음","http://yeyak.seoul.go.kr/reservation/view.web?rsvsvcid=S160919170354141117","","","2016-09-19 00:00:00.0","2020-09-01 00:00:00.0","2016-09-30 09:00:00.0","2016-10-03 23:00:00.0","구로구"
"자체","S161018152253512702","교육","체험/견학","접수종료","고척스카이돔 상설투어프로그램 신청","유료(요금안내문의)","고척스카이돔","제한없음","http://yeyak.seoul.go.kr/reservation/view.web?rsvsvcid=S161018152253512702","","","2016-10-18 00:00:00.0","2020-09-01 00:00:00.0","2016-10-21 09:00:00.0","2016-10-27 23:00:00.0","구로구"
"자체","S161117110951759278","교육","체험/견학","접수종료","고척스카이돔 상설투어프로그램 신청","유료(요금안내문의)","고척스카이돔","제한없음","http://yeyak.seoul.go.kr/reservation/view.web?rsvsvcid=S161117110951759278","","","2016-11-02 00:00:00.0","2020-09-01 00:00:00.0","2016-11-29 09:00:00.0","2016-12-01 23:00:00.0","구로구"
"자체","S170103103132605530","교육","체험/견학","접수종료","고척스카이돔 상설투어프로그램 신청","유료(요금안내문의)","고척스카이돔","제한없음","http://yeyak.seoul.go.kr/reservation/view.web?rsvsvcid=S170103103132605530","","","2017-01-03 00:00:00.0","2020-09-01 00:00:00.0","2017-01-09 09:00:00.0","2017-01-12 23:00:00.0","구로구"
"자체","S200526162047474155","교육","기타","접수중","서울동물복지지원센터 입양 전 교육(장소 : 서울반려동물교육센터)-코로나 관련 주의사항 필독요망!","무료","서울반려동물교육센터","제한없음","http://yeyak.seoul.go.kr/reservation/view.web?rsvsvcid=S200526162047474155","37.49859882","126.8712295444","2020-05-26 00:00:00.0","2021-01-31 00:00:00.0","2020-05-26 00:00:00.0","2021-01-31 00:00:00.0","구로구"